<svg xmlns="http://www.w3.org/2000/svg" width="64" height="64" viewBox="0 0 64 64">
    <defs>
        <linearGradient id="a" x1="76.393%" x2="57.835%" y1="8.772%" y2="67.575%">
            <stop offset="0%" stop-color="#2EA1E8"/>
            <stop offset="100%" stop-color="#00E0C6"/>
        </linearGradient>
    </defs>
    <g fill="none" fill-rule="evenodd">
        <path fill="#FAFAF7" d="M48.75 0C58 0 64 6 64 15.25v33.5C64 58 58 64 48.75 64h-33.5C6 64 0 58 0 48.75v-33.5C0 6 6 0 15.25 0h33.5z"/>
        <path fill="url(#a)" d="M45.204 29.444c-2.412 2.504-6.36 2.63-8.93.084-2.408-2.394-2.59-6.317-.014-8.89 2.457-2.455 6.339-2.512 8.861-.015 2.522 2.498 2.481 6.33.083 8.82M29.706 13.768c6.081-5.91 15.524-5.955 21.653.123 6.213 6.158 6.098 15.589.196 21.712-4.346 4.508-10.7 5.874-16.273 3.843l-.003.006c-5.473-1.962-7.499.136-11.86 4.498h-.001l-9.194 9.193a3.22 3.22 0 0 1-4.551 0 3.22 3.22 0 0 1 0-4.551l10.81-10.81 1.705-1.706c.786-.785.787-2.06.001-2.846a2.014 2.014 0 0 0-2.845.001l-1.706 1.706.003-.009-4.153 4.152a3.222 3.222 0 0 1-4.553.002 3.203 3.203 0 0 1 .016-4.539l20.596-20.624.001-.001.002-.002.152-.152.004.004zm-.738 30.321c1.035-1.035 2.768-.98 3.866.117 1.1 1.1 1.154 2.828.116 3.866l-5.353 5.353c-1.036 1.036-2.769.982-3.866-.116-1.1-1.1-1.154-2.828-.117-3.866l5.354-5.354z"/>
    </g>
</svg>
