<?xml version="1.0" encoding="UTF-8"?>
<svg width="17px" height="21px" viewBox="0 0 17 21" version="1.1" xmlns="http://www.w3.org/2000/svg" xmlns:xlink="http://www.w3.org/1999/xlink">
    <!-- Generator: Sketch 45.2 (43514) - http://www.bohemiancoding.com/sketch -->
    <title>Triangle 1</title>
    <desc>Created with Sketch.</desc>
    <defs></defs>
    <g id="Symbols" stroke="none" stroke-width="1" fill="none" fill-rule="evenodd" fill-opacity="0.8">
        <g id="video-cell" transform="translate(-153.000000, -79.000000)" fill="#000000">
            <g id="Group-10">
                <g id="Group-6" transform="translate(128.000000, 58.000000)">
                    <path d="M25.3333333,40.5947849 L25.3333333,23.1174214 L25.3333333,23.1174214 C25.3333333,22.3886333 25.9241328,21.7978338 26.652921,21.7978338 C26.9134405,21.7978338 27.1681311,21.8749479 27.3848965,22.0194581 L40.4929191,30.7581399 L40.4929191,30.7581399 C41.0993075,31.1623988 41.2631658,31.9816903 40.8589068,32.5880787 C40.762267,32.7330384 40.6378788,32.8574266 40.4929191,32.9540664 L27.3848965,41.6927482 L27.3848965,41.6927482 C26.7785081,42.0970071 25.9592166,41.9331488 25.5549577,41.3267604 C25.4104474,41.109995 25.3333333,40.8553045 25.3333333,40.5947849 Z" id="Triangle-1"></path>
                </g>
            </g>
        </g>
    </g>
</svg>